[
	{
		"id": 59,
		"name": "finalRouteAll",
		"layerFrame": {
			"x": 0,
			"y": 0,
			"width": 333,
			"height": 379
		},
		"maskFrame": null,
		"image": null,
		"imageType": null,
		"children": [
			{
				"id": 51,
				"name": "finalRoute",
				"layerFrame": {
					"x": 0,
					"y": 0,
					"width": 333,
					"height": 379
				},
				"maskFrame": null,
				"image": {
					"path": "images/finalRoute.png",
					"frame": {
						"x": 38,
						"y": 77,
						"width": 271,
						"height": 103
					}
				},
				"imageType": "png",
				"children": [
					{
						"id": 44,
						"name": "DeriveIn",
						"layerFrame": {
							"x": 0,
							"y": 0,
							"width": 333,
							"height": 379
						},
						"maskFrame": null,
						"image": {
							"path": "images/DeriveIn.png",
							"frame": {
								"x": 65,
								"y": 16,
								"width": 195,
								"height": 24
							}
						},
						"imageType": "png",
						"children": [
							
						],
						"modification": "61437636"
					}
				],
				"modification": "257623022"
			},
			{
				"id": 49,
				"name": "BackgroundNR",
				"layerFrame": {
					"x": 0,
					"y": 0,
					"width": 333,
					"height": 379
				},
				"maskFrame": null,
				"image": {
					"path": "images/BackgroundNR.png",
					"frame": {
						"x": 0,
						"y": 0,
						"width": 333,
						"height": 379
					}
				},
				"imageType": "png",
				"children": [
					
				],
				"modification": "61527008"
			}
		],
		"modification": "355410542"
	}
]